CC Challenge 2!
…
species_percent <- species_coverage %>% 
  left_join(
    species_total_coverage,
    join_by(NAME == NAME)
  ) %>% 
  mutate(
    p_i = species_coverage / total_coverage
  ) 
print(species_percent)

## # A tibble: 145 × 5
##    NAME       SPECIES       species_coverage total_coverage       p_i
##    <chr>      <fct>                    <dbl>          <dbl>     <dbl>
##  1 Cairngorms Ash *                    0.108          6554. 0.0000165
##  2 Cairngorms Aspen *                  0.537          6554. 0.0000820
##  3 Cairngorms Beech                    0              6554. 0        
##  4 Cairngorms Birch *                  0              6554. 0        
##  5 Cairngorms Bird cherry *            0.743          6554. 0.000113 
##  6 Cairngorms Bramble *+               0              6554. 0        
##  7 Cairngorms Broom *+                 0              6554. 0        
##  8 Cairngorms Common alder*           16.4            6554. 0.00250  
##  9 Cairngorms Crab apple               0              6554. 0        
## 10 Cairngorms Dog rose *+              0              6554. 0        
## # ℹ 135 more rows
…
