Efficient Data Manipulation CC Tutorial
…
# Load data
trees <- vroom::vroom('trees.csv')

## Rows: 550 Columns: 9
## ── Column specification ────────────────────────────────────────────────────────
## Delimiter: ","
## chr (7): Site, LatinName, CommonName, Height, Spread, AgeGroup, DiameterAt
## dbl (2): Easting, Northing
## 
## ℹ Use `spec()` to retrieve the full column specification for this data.
## ℹ Specify the column types or set `show_col_types = FALSE` to quiet this message.

trees

## # A tibble: 550 × 9
##    Site  LatinName CommonName Height Spread AgeGroup DiameterAt Easting Northing
##    <chr> <chr>     <chr>      <chr>  <chr>  <chr>    <chr>        <dbl>    <dbl>
##  1 Crai… Acer pse… Sycamore   10 to… 6 to … Middle … 30 - 40     328092   671054
##  2 Crai… Acer pse… Sycamore   10 to… 6 to … Middle … 30 - 40     328099   671061
##  3 Crai… Acer pse… Sycamore   10 to… 6 to … Middle … 30 - 40     328106   671067
##  4 Crai… Acer pse… Sycamore   10 to… 6 to … Middle … 30 - 40     328109   671071
##  5 Crai… Acer pse… Sycamore   10 to… 6 to … Middle … 30 - 40     328127   671089
##  6 Crai… Acer pse… Sycamore   10 to… 6 to … Middle … 30 - 40     328131   671093
##  7 Crai… Acer pse… Sycamore   5 to … 6 to … Middle … 30 - 40     328159   670743
##  8 Crai… Acer pse… Sycamore   5 to … 6 to … Middle … 30 - 40     328162   670740
##  9 Crai… Acer pse… Sycamore   5 to … 3 to … Middle … 20 - 30     328165   670737
## 10 Crai… Acer pse… Sycamore   10 to… 6 to … Middle … 40 - 50     328166   670734
## # ℹ 540 more rows
…
