Introduction to linear mixed models
…
Warning: Unknown or uninitialised column: `family`.

Each random effect has a posterior distribution. The BLUP is like the mode of this posterior distribution.

posteriormode <- apply(fixedtest$Sol, 2, mode)

If we want to look at the posterior modes for Species, for example, we can choose the correct rows using the code below. This is a bit fiddly if you have lots of levels.

names(posteriormode) %>% as_tibble() # identify which posterior modes belong to Species

# A tibble: 2,316 × 1
   value                         
   <chr>                         
 1 (Intercept)                   
 2 Migration_distanceshort       
 3 Migration_distanceunclassified
 4 ContinentAntarctica           
 5 ContinentAsia                 
 6 ContinentAustralasia          
 7 ContinentEurope               
 8 ContinentNorth America        
 9 Species.Accipiter cooperii    
10 Species.Accipiter nisus       
# ℹ 2,306 more rows

posteriormode[9:416] %>% as_tibble() # there are a lot of species in this analysis!

# A tibble: 408 × 1
   value  
   <chr>  
 1 numeric
 2 numeric
 3 numeric
 4 numeric
 5 numeric
 6 numeric
 7 numeric
 8 numeric
 9 numeric
10 numeric
# ℹ 398 more rows

This code will sort from smallest value to largest. Now you can report which species have been most or least responsive in changing their arrival date at breeding grounds.

sort(posteriormode[9:416]) %>% as_tibble()

# A tibble: 408 × 1
   value  
   <chr>  
 1 numeric
 2 numeric
 3 numeric
 4 numeric
 5 numeric
 6 numeric
 7 numeric
 8 numeric
 9 numeric
10 numeric
# ℹ 398 more rows
…
