Introduction to Ordination
…
# Load the dataset for which NoTropTree has at least one record in Bolivia.
spp <- vroom::vroom('spp_bol.csv')

## Rows: 3369 Columns: 5
## ── Column specification ────────────────────────────────────────────────────────
## Delimiter: ","
## chr (4): Family, Genus, Species, Species.code
## dbl (1): SppID
## 
## ℹ Use `spec()` to retrieve the full column specification for this data.
## ℹ Specify the column types or set `show_col_types = FALSE` to quiet this message.

spp

## # A tibble: 3,369 × 5
##       SppID Family          Genus         Species                   Species.code
##       <dbl> <chr>           <chr>         <chr>                     <chr>       
##  1 42552216 ACANTHACEAE     Aphelandra    Aphelandra castaneifolia  Aphecast    
##  2 42552104 ACANTHACEAE     Suessenguthia Suessenguthia multisetosa Suesmult    
##  3 42552105 ACANTHACEAE     Suessenguthia Suessenguthia wenzelii    Sueswenz    
##  4    50009 ACHARIACEAE     Carpotroche   Carpotroche longifolia    Carplong    
##  5    50014 ACHARIACEAE     Lindackeria   Lindackeria paludosa      Lindpalu    
##  6    50018 ACHARIACEAE     Mayna         Mayna odorata             Maynodor    
##  7 42551050 ACHATOCARPACEAE Achatocarpus  Achatocarpus microcarpus  Achamicr    
##  8    50020 ACHATOCARPACEAE Achatocarpus  Achatocarpus nigricans    Achanigr    
##  9    50021 ACHATOCARPACEAE Achatocarpus  Achatocarpus praecox      Achaprae    
## 10    50022 ACTINIDIACEAE   Saurauia      Saurauia chaparensis      Saurchap    
## # ℹ 3,359 more rows
…
# Load the dataframe containing all sites NeoTropTree has in Bolivia.
sites <- vroom::vroom('sites_bolivia.csv', delim = ',')

## Rows: 217 Columns: 22
## ── Column specification ────────────────────────────────────────────────────────
## Delimiter: ","
## chr (16): AreaCode, Locality, Country, State/Province, Latitude, Longitude, ...
## dbl  (6): AreaID, Lat10, Long10, Altitude, Alt SRTM, FitGeoN
## 
## ℹ Use `spec()` to retrieve the full column specification for this data.
## ℹ Specify the column types or set `show_col_types = FALSE` to quiet this message.

sites

## # A tibble: 217 × 22
##    AreaID AreaCode Locality    Country `State/Province` Latitude Longitude Lat10
##     <dbl> <chr>    <chr>       <chr>   <chr>            <chr>    <chr>     <dbl>
##  1   2566 AmzBO001 "Santa Ros… Bolivia Pando            "10\xb0… "67\xb02… -10.6
##  2   2629 AmzBO002 "Aeropista… Bolivia Pando            "10\xb0… "66\xb04… -10.8
##  3   2630 AmzBO003 "Puerto Ri… Bolivia Pando            "10\xb0… "67\xb04… -11.0
##  4   5418 AmzBO004 "Cobija y … Bolivi… Pando/Acre       "11\xb0… "68\xb04… -11.1
##  5   2568 AmzBO005 "Conquista… Bolivia Pando            "11\xb0… "67\xb02… -11.3
##  6   2569 AmzBO006 "Chivesito… Bolivia Pando            "11\xb0… "68\xb04… -11.6
##  7   2570 AmzBO007 "Reserva M… Bolivia Pando            "11\xb0… "68\xb01… -11.7
##  8   2626 AmzBO008 "Blanca Fl… Bolivia Pando            "11\xb0… "67\xb01… -11.7
##  9   2638 AmzBO009 "Pacaguara… Bolivia La Paz           "12\xb0… "67\xb05… -13.0
## 10   5425 AmzBO010 "Estacion … Bolivia Beni             "14\xb0… "66\xb01… -14.7
## # ℹ 207 more rows
## # ℹ 14 more variables: Long10 <dbl>, Altitude <dbl>, `Alt SRTM` <dbl>,
## #   Domain <chr>, EcoUnit <chr>, FitGeoN <dbl>, `Asp Ocean` <chr>,
## #   `Thermic realm` <chr>, `Elevation range` <chr>, `Zonal Azonal` <chr>,
## #   `Climatic regime` <chr>, `Leaf flush` <chr>,
## #   `Vegetation physiognomy` <chr>, `Vegetation type` <chr>
…
# Load the sppxarea matrix
sppxsites <- vroom::vroom('sppxsites_bol.csv', del = ',')

## Rows: 42015 Columns: 2
## ── Column specification ────────────────────────────────────────────────────────
## Delimiter: ","
## dbl (2): AreaID, SppID
## 
## ℹ Use `spec()` to retrieve the full column specification for this data.
## ℹ Specify the column types or set `show_col_types = FALSE` to quiet this message.

sppxsites

## # A tibble: 42,015 × 2
##    AreaID    SppID
##     <dbl>    <dbl>
##  1   3768 42548321
##  2   3768 42547343
##  3   3768 42552077
##  4   3768    54508
##  5   3768 42548053
##  6   3768    52320
##  7   3768    51045
##  8   3768    52056
##  9   3768 42547194
## 10   3768 42549484
## # ℹ 42,005 more rows
…
